  0
SECTION
  2
HEADER
  9
$ACADVER
  1
AC1009
  9
$INSBASE
 10
0.0
 20
0.0
 30
0.0
  9
$EXTMIN
 10
0.0
 20
0.0
 30
0.0
  9
$EXTMAX
 10
0.0
 20
0.0
 30
0.0
  0
ENDSEC
  0
SECTION
  2
TABLES
  0
TABLE
  2
VPORT
 70
0
  0
ENDTAB
  0
TABLE
  2
LTYPE
 70
1
  0
LTYPE
  2
CONTINUOUS
 70
0
  3
Solid line
 72
65
 73
0
 40
0.0
  0
ENDTAB
  0
TABLE
  2
LAYER
 70
1
  0
LAYER
  2
0
 70
64
 62
7
  6
continuous
  0
ENDTAB
  0
TABLE
  2
STYLE
 70
1
  0
STYLE
  2
STANDARD
 70
0
 40
0
 41
1.0
 50
0.0
 71
0
 42
1
 3
ARIAL.TTF
 4

  0
ENDTAB
  0
TABLE
  2
VIEW
 70
0
  0
ENDTAB
  0
ENDSEC
  0
SECTION
  2
BLOCKS
  0
BLOCK
  8
0
  2
UNFOLD
 70
0
 10
0.0
 20
0.0
 30
0.0
  3
UNFOLD
  0
LINE
  8
0
 62
0
 10
-406.658143797
 20
774.7
 30
0.0
 11
-406.658143797
 21
422.275
 31
0.0
  0
LINE
  8
0
 62
0
 10
3.27025e-13
 20
0.0
 30
0.0
 11
3.27025e-13
 21
774.7
 31
0.0
  0
LINE
  8
0
 62
0
 10
-127.0
 20
0.0
 30
0.0
 11
3.2684965845e-13
 21
0.0
 31
0.0
  0
LINE
  8
0
 62
0
 10
-402.260237044
 20
406.082530154
 30
0.0
 11
-154.610237044
 21
-16.1924698456
 31
0.0
  0
LINE
  8
0
 62
0
 10
-374.65
 20
422.275
 30
0.0
 11
-402.260237044
 21
406.082530154
 31
0.0
  0
LINE
  8
0
 62
0
 10
-154.610237044
 20
-16.1924698456
 30
0.0
 11
-127.0
 21
-3.5527136788e-15
 31
0.0
  0
LINE
  8
0
 62
0
 10
3.29e-13
 20
774.7
 30
0.0
 11
-406.658143797
 21
774.7
 31
0.0
  0
LINE
  8
0
 62
0
 10
-406.658143797
 20
422.275
 30
0.0
 11
-374.65
 21
422.275
 31
0.0
  0
ENDBLK
  0
ENDSEC
  0
SECTION
  2
ENTITIES
  0
INSERT
  2
UNFOLD
  8
0
 62
0
 10
0.0
 20
0.0
 30
0.0
  0
ENDSEC
  0
EOF
