  0
SECTION
  2
HEADER
  9
$ACADVER
  1
AC1009
  9
$INSBASE
 10
0.0
 20
0.0
 30
0.0
  9
$EXTMIN
 10
0.0
 20
0.0
 30
0.0
  9
$EXTMAX
 10
0.0
 20
0.0
 30
0.0
  0
ENDSEC
  0
SECTION
  2
TABLES
  0
TABLE
  2
VPORT
 70
0
  0
ENDTAB
  0
TABLE
  2
LTYPE
 70
1
  0
LTYPE
  2
CONTINUOUS
 70
0
  3
Solid line
 72
65
 73
0
 40
0.0
  0
ENDTAB
  0
TABLE
  2
LAYER
 70
1
  0
LAYER
  2
0
 70
64
 62
7
  6
continuous
  0
ENDTAB
  0
TABLE
  2
STYLE
 70
1
  0
STYLE
  2
STANDARD
 70
0
 40
0
 41
1.0
 50
0.0
 71
0
 42
1
 3
ARIAL.TTF
 4

  0
ENDTAB
  0
TABLE
  2
VIEW
 70
0
  0
ENDTAB
  0
ENDSEC
  0
SECTION
  2
BLOCKS
  0
BLOCK
  8
0
  2
PAD007
 70
0
 10
0.0
 20
0.0
 30
0.0
  3
PAD007
  0
LINE
  8
0
 62
0
 10
-1.40998324127e-15
 20
-57.15
 30
0.0
 11
-57.15
 21
-57.15
 31
0.0
  0
LINE
  8
0
 62
0
 10
-1.40998324127e-15
 20
-57.15
 30
0.0
 11
-1.40998324127e-15
 21
57.15
 31
0.0
  0
LINE
  8
0
 62
0
 10
-1.40998324127e-15
 20
57.15
 30
0.0
 11
-57.15
 21
57.15
 31
0.0
  0
LINE
  8
0
 62
0
 10
-57.15
 20
57.15
 30
0.0
 11
-100.220050058
 21
149.514020415
 31
0.0
  0
LINE
  8
0
 62
0
 10
-100.220050058
 20
149.514020415
 30
0.0
 11
-273.05
 21
57.15
 31
0.0
  0
LINE
  8
0
 62
0
 10
-273.05
 20
57.15
 30
0.0
 11
-273.05
 21
-57.15
 31
0.0
  0
LINE
  8
0
 62
0
 10
-273.05
 20
-57.15
 30
0.0
 11
-114.952132279
 21
-139.7
 31
0.0
  0
LINE
  8
0
 62
0
 10
-57.15
 20
-57.15
 30
0.0
 11
-114.952132279
 21
-139.7
 31
0.0
  0
CIRCLE
  8
0
 62
0
 10
-187.081195
 20
-50.247467
 30
0.0
 40
20.4439253615
  0
CIRCLE
  8
0
 62
0
 10
-187.081195
 20
50.247467
 30
0.0
 40
20.4439253615
  0
CIRCLE
  8
0
 62
0
 10
-98.783145
 20
-1.09671322024e-14
 30
0.0
 40
20.4439253615
  0
ENDBLK
  0
ENDSEC
  0
SECTION
  2
ENTITIES
  0
INSERT
  2
PAD007
  8
0
 62
0
 10
0.0
 20
0.0
 30
0.0
  0
ENDSEC
  0
EOF
