  0
SECTION
  2
HEADER
  9
$ACADVER
  1
AC1009
  9
$INSBASE
 10
0.0
 20
0.0
 30
0.0
  9
$EXTMIN
 10
0.0
 20
0.0
 30
0.0
  9
$EXTMAX
 10
0.0
 20
0.0
 30
0.0
  0
ENDSEC
  0
SECTION
  2
TABLES
  0
TABLE
  2
VPORT
 70
0
  0
ENDTAB
  0
TABLE
  2
LTYPE
 70
1
  0
LTYPE
  2
CONTINUOUS
 70
0
  3
Solid line
 72
65
 73
0
 40
0.0
  0
ENDTAB
  0
TABLE
  2
LAYER
 70
1
  0
LAYER
  2
0
 70
64
 62
7
  6
continuous
  0
ENDTAB
  0
TABLE
  2
STYLE
 70
1
  0
STYLE
  2
STANDARD
 70
0
 40
0
 41
1.0
 50
0.0
 71
0
 42
1
 3
ARIAL.TTF
 4

  0
ENDTAB
  0
TABLE
  2
VIEW
 70
0
  0
ENDTAB
  0
ENDSEC
  0
SECTION
  2
BLOCKS
  0
BLOCK
  8
0
  2
FACE014
 70
0
 10
0.0
 20
0.0
 30
0.0
  3
FACE014
  0
LINE
  8
0
 62
0
 10
130.402954744
 20
-1.3084644479e-12
 30
0.0
 11
12.7
 21
-1.3084644479e-12
 31
0.0
  0
LINE
  8
0
 62
0
 10
12.7
 20
-1.31539223958e-12
 30
0.0
 11
-127.0
 21
37.4325021826
 31
0.0
  0
LINE
  8
0
 62
0
 10
-127.0
 20
37.4325021826
 30
0.0
 11
-127.0
 21
79.79189947
 31
0.0
  0
POLYLINE
  8
0
 62
0
 70
0
 66
1
 10
0.0
 20
0.0
 30
0.0
  0
VERTEX
  8
0
 10
-127.0
 20
79.79189947
 30
0.0
  0
VERTEX
  8
0
 10
-126.03238752
 20
80.0394571963
 30
0.0
  0
VERTEX
  8
0
 10
-125.065197989
 20
80.2886278821
 30
0.0
  0
VERTEX
  8
0
 10
-124.098436998
 20
80.5394268037
 30
0.0
  0
VERTEX
  8
0
 10
-123.132110353
 20
80.7918693965
 30
0.0
  0
VERTEX
  8
0
 10
-122.166224082
 20
81.045971257
 30
0.0
  0
VERTEX
  8
0
 10
-121.200784429
 20
81.3017481443
 30
0.0
  0
VERTEX
  8
0
 10
-120.235797857
 20
81.5592159825
 30
0.0
  0
VERTEX
  8
0
 10
-119.271271047
 20
81.8183908617
 30
0.0
  0
VERTEX
  8
0
 10
-118.307210904
 20
82.0792890404
 30
0.0
  0
VERTEX
  8
0
 10
-117.343624549
 20
82.3419269469
 30
0.0
  0
VERTEX
  8
0
 10
-116.380519326
 20
82.6063211806
 30
0.0
  0
VERTEX
  8
0
 10
-115.417902802
 20
82.8724885139
 30
0.0
  0
VERTEX
  8
0
 10
-114.455782762
 20
83.1404458937
 30
0.0
  0
VERTEX
  8
0
 10
-113.494167217
 20
83.4102104427
 30
0.0
  0
VERTEX
  8
0
 10
-112.533064398
 20
83.681799461
 30
0.0
  0
VERTEX
  8
0
 10
-111.572482761
 20
83.9552304274
 30
0.0
  0
VERTEX
  8
0
 10
-110.612430984
 20
84.2305210009
 30
0.0
  0
VERTEX
  8
0
 10
-109.652917972
 20
84.5076890215
 30
0.0
  0
VERTEX
  8
0
 10
-108.693952849
 20
84.7867525123
 30
0.0
  0
VERTEX
  8
0
 10
-107.735544968
 20
85.0677296799
 30
0.0
  0
VERTEX
  8
0
 10
-106.777703906
 20
85.350638916
 30
0.0
  0
VERTEX
  8
0
 10
-105.820439464
 20
85.6354987984
 30
0.0
  0
VERTEX
  8
0
 10
-104.863761669
 20
85.9223280919
 30
0.0
  0
VERTEX
  8
0
 10
-103.907680774
 20
86.2111457494
 30
0.0
  0
VERTEX
  8
0
 10
-102.952207258
 20
86.5019709128
 30
0.0
  0
VERTEX
  8
0
 10
-101.997351826
 20
86.7948229137
 30
0.0
  0
VERTEX
  8
0
 10
-101.043125409
 20
87.0897212743
 30
0.0
  0
VERTEX
  8
0
 10
-100.089539164
 20
87.3866857076
 30
0.0
  0
VERTEX
  8
0
 10
-99.136604477
 20
87.6857361184
 30
0.0
  0
VERTEX
  8
0
 10
-98.1843329577
 20
87.9868926037
 30
0.0
  0
VERTEX
  8
0
 10
-97.2327364437
 20
88.2901754525
 30
0.0
  0
VERTEX
  8
0
 10
-96.2818269993
 20
88.5956051464
 30
0.0
  0
VERTEX
  8
0
 10
-95.3316169149
 20
88.9032023594
 30
0.0
  0
VERTEX
  8
0
 10
-94.3821187076
 20
89.2129879581
 30
0.0
  0
VERTEX
  8
0
 10
-93.4333451206
 20
89.5249830007
 30
0.0
  0
VERTEX
  8
0
 10
-92.485309123
 20
89.8392087374
 30
0.0
  0
VERTEX
  8
0
 10
-91.5380239097
 20
90.155686609
 30
0.0
  0
VERTEX
  8
0
 10
-90.5915029008
 20
90.4744382464
 30
0.0
  0
VERTEX
  8
0
 10
-89.6457597412
 20
90.7954854694
 30
0.0
  0
VERTEX
  8
0
 10
-88.7008083001
 20
91.1188502855
 30
0.0
  0
VERTEX
  8
0
 10
-87.7566626706
 20
91.444554888
 30
0.0
  0
VERTEX
  8
0
 10
-86.8133371686
 20
91.7726216547
 30
0.0
  0
VERTEX
  8
0
 10
-85.8708463322
 20
92.1030731452
 30
0.0
  0
VERTEX
  8
0
 10
-84.9292049209
 20
92.435932099
 30
0.0
  0
VERTEX
  8
0
 10
-83.9884279144
 20
92.7712214325
 30
0.0
  0
VERTEX
  8
0
 10
-83.0485305119
 20
93.108964236
 30
0.0
  0
VERTEX
  8
0
 10
-82.1095281303
 20
93.4491837702
 30
0.0
  0
VERTEX
  8
0
 10
-81.1714364031
 20
93.7919034628
 30
0.0
  0
VERTEX
  8
0
 10
-80.2342711791
 20
94.1371469038
 30
0.0
  0
VERTEX
  8
0
 10
-79.2980485207
 20
94.4849378413
 30
0.0
  0
VERTEX
  8
0
 10
-78.3627847018
 20
94.8353001767
 30
0.0
  0
VERTEX
  8
0
 10
-77.4284962062
 20
95.1882579584
 30
0.0
  0
VERTEX
  8
0
 10
-76.4951997258
 20
95.543835377
 30
0.0
  0
VERTEX
  8
0
 10
-75.5629121575
 20
95.9020567579
 30
0.0
  0
VERTEX
  8
0
 10
-74.6316506018
 20
96.262946555
 30
0.0
  0
VERTEX
  8
0
 10
-73.7014323592
 20
96.6265293428
 30
0.0
  0
VERTEX
  8
0
 10
-72.7722749284
 20
96.9928298086
 30
0.0
  0
VERTEX
  8
0
 10
-71.8441960024
 20
97.3618727439
 30
0.0
  0
VERTEX
  8
0
 10
-70.917213466
 20
97.7336830348
 30
0.0
  0
VERTEX
  8
0
 10
-69.991345392
 20
98.1082856522
 30
0.0
  0
VERTEX
  8
0
 10
-69.0666100175
 20
98.4857056498
 30
0.0
  0
VERTEX
  8
0
 10
-68.1430276386
 20
98.8659673556
 30
0.0
  0
VERTEX
  8
0
 10
-67.2206197557
 20
99.2490946875
 30
0.0
  0
VERTEX
  8
0
 10
-66.2994081219
 20
99.6351115238
 30
0.0
  0
VERTEX
  8
0
 10
-65.3794147337
 20
100.024041686
 30
0.0
  0
VERTEX
  8
0
 10
-64.4606618213
 20
100.41590892
 30
0.0
  0
VERTEX
  8
0
 10
-63.5431718391
 20
100.810736882
 30
0.0
  0
VERTEX
  8
0
 10
-62.6269674551
 20
101.208549112
 30
0.0
  0
VERTEX
  8
0
 10
-61.7120715402
 20
101.609369022
 30
0.0
  0
VERTEX
  8
0
 10
-60.7985071573
 20
102.013219868
 30
0.0
  0
VERTEX
  8
0
 10
-59.8862975492
 20
102.420124731
 30
0.0
  0
VERTEX
  8
0
 10
-58.9754661266
 20
102.830106495
 30
0.0
  0
VERTEX
  8
0
 10
-58.0660364548
 20
103.243187819
 30
0.0
  0
VERTEX
  8
0
 10
-57.1580322407
 20
103.659391117
 30
0.0
  0
VERTEX
  8
0
 10
-56.2514773181
 20
104.078738522
 30
0.0
  0
VERTEX
  8
0
 10
-55.3463956329
 20
104.501251867
 30
0.0
  0
VERTEX
  8
0
 10
-54.4428112277
 20
104.92695265
 30
0.0
  0
VERTEX
  8
0
 10
-53.5407482251
 20
105.355862002
 30
0.0
  0
VERTEX
  8
0
 10
-52.6402308103
 20
105.788000657
 30
0.0
  0
VERTEX
  8
0
 10
-51.7412832136
 20
106.223388916
 30
0.0
  0
VERTEX
  8
0
 10
-50.8439296912
 20
106.662046612
 30
0.0
  0
VERTEX
  8
0
 10
-49.9481945052
 20
107.103993068
 30
0.0
  0
VERTEX
  8
0
 10
-49.0541019036
 20
107.549247062
 30
0.0
  0
VERTEX
  8
0
 10
-48.161676098
 20
107.997826784
 30
0.0
  0
VERTEX
  8
0
 10
-47.2709412417
 20
108.449749791
 30
0.0
  0
VERTEX
  8
0
 10
-46.3819214061
 20
108.905032966
 30
0.0
  0
VERTEX
  8
0
 10
-45.4946405561
 20
109.363692465
 30
0.0
  0
VERTEX
  8
0
 10
-44.6091225251
 20
109.825743673
 30
0.0
  0
VERTEX
  8
0
 10
-43.7253909884
 20
110.29120115
 30
0.0
  0
VERTEX
  8
0
 10
-42.843469436
 20
110.76007858
 30
0.0
  0
VERTEX
  8
0
 10
-41.9633811442
 20
111.232388716
 30
0.0
  0
VERTEX
  8
0
 10
-41.085149146
 20
111.70814332
 30
0.0
  0
VERTEX
  8
0
 10
-40.2087962013
 20
112.187353108
 30
0.0
  0
VERTEX
  8
0
 10
-39.3343447648
 20
112.670027687
 30
0.0
  0
VERTEX
  8
0
 10
-38.4618169543
 20
113.156175492
 30
0.0
  0
VERTEX
  8
0
 10
-37.5912345163
 20
113.645803721
 30
0.0
  0
VERTEX
  8
0
 10
-36.7226187925
 20
114.138918266
 30
0.0
  0
VERTEX
  8
0
 10
-35.8559906836
 20
114.635523647
 30
0.0
  0
VERTEX
  8
0
 10
-34.991370613
 20
115.135622938
 30
0.0
  0
VERTEX
  8
0
 10
-34.1287784892
 20
115.639217693
 30
0.0
  0
VERTEX
  8
0
 10
-33.268233667
 20
116.146307875
 30
0.0
  0
VERTEX
  8
0
 10
-32.4097549084
 20
116.65689177
 30
0.0
  0
VERTEX
  8
0
 10
-31.5533603415
 20
117.170965915
 30
0.0
  0
VERTEX
  8
0
 10
-30.6990674191
 20
117.688525014
 30
0.0
  0
VERTEX
  8
0
 10
-29.8468924119
 20
118.209562136
 30
0.0
  0
VERTEX
  8
0
 10
-28.9968455773
 20
118.734071637
 30
0.0
  0
VERTEX
  8
0
 10
-28.1489402472
 20
119.262043499
 30
0.0
  0
VERTEX
  8
0
 10
-27.3031899544
 20
119.793464917
 30
0.0
  0
VERTEX
  8
0
 10
-26.4596066079
 20
120.328321319
 30
0.0
  0
VERTEX
  8
0
 10
-25.6182004494
 20
120.866596302
 30
0.0
  0
VERTEX
  8
0
 10
-24.7789800087
 20
121.40827157
 30
0.0
  0
VERTEX
  8
0
 10
-23.94195206
 20
121.95332686
 30
0.0
  0
VERTEX
  8
0
 10
-23.1071215766
 20
122.501739883
 30
0.0
  0
VERTEX
  8
0
 10
-22.2744916872
 20
123.053486258
 30
0.0
  0
VERTEX
  8
0
 10
-21.4440636319
 20
123.608539443
 30
0.0
  0
VERTEX
  8
0
 10
-20.6158367191
 20
124.166870674
 30
0.0
  0
VERTEX
  8
0
 10
-19.7898082829
 20
124.728448903
 30
0.0
  0
VERTEX
  8
0
 10
-18.9659736421
 20
125.293240732
 30
0.0
  0
VERTEX
  8
0
 10
-18.1443260597
 20
125.86121036
 30
0.0
  0
VERTEX
  8
0
 10
-17.3248567046
 20
126.432319518
 30
0.0
  0
VERTEX
  8
0
 10
-16.507554614
 20
127.006527421
 30
0.0
  0
VERTEX
  8
0
 10
-15.6924066588
 20
127.583790708
 30
0.0
  0
VERTEX
  8
0
 10
-14.8793975101
 20
128.1640634
 30
0.0
  0
VERTEX
  8
0
 10
-14.0685096081
 20
128.747296849
 30
0.0
  0
VERTEX
  8
0
 10
-13.2597231342
 20
129.333439694
 30
0.0
  0
VERTEX
  8
0
 10
-12.4530159846
 20
129.922437826
 30
0.0
  0
VERTEX
  8
0
 10
-11.6483637479
 20
130.514234351
 30
0.0
  0
VERTEX
  8
0
 10
-10.8457369992
 20
131.10877157
 30
0.0
  0
VERTEX
  8
0
 10
-10.0451028289
 20
131.705989844
 30
0.0
  0
VERTEX
  8
0
 10
-9.24642770776
 20
132.305825449
 30
0.0
  0
VERTEX
  8
0
 10
-8.44967523189
 20
132.908212231
 30
0.0
  0
VERTEX
  8
0
 10
-7.65480612152
 20
133.513081603
 30
0.0
  0
VERTEX
  8
0
 10
-6.86177822519
 20
134.120362553
 30
0.0
  0
VERTEX
  8
0
 10
-6.07054652933
 20
134.729981652
 30
0.0
  0
VERTEX
  8
0
 10
-5.28106317316
 20
135.341863072
 30
0.0
  0
VERTEX
  8
0
 10
-4.49327746904
 20
135.955928614
 30
0.0
  0
VERTEX
  8
0
 10
-3.70713592814
 20
136.572097738
 30
0.0
  0
VERTEX
  8
0
 10
-2.92258229146
 20
137.1902876
 30
0.0
  0
VERTEX
  8
0
 10
-2.13955756623
 20
137.8104131
 30
0.0
  0
VERTEX
  8
0
 10
-1.35800006771
 20
138.432386933
 30
0.0
  0
VERTEX
  8
0
 10
-0.577845466343
 20
139.056119648
 30
0.0
  0
VERTEX
  8
0
 10
0.200973159778
 20
139.681519713
 30
0.0
  0
VERTEX
  8
0
 10
0.978525266994
 20
140.308493589
 30
0.0
  0
VERTEX
  8
0
 10
1.75488278284
 20
140.936945808
 30
0.0
  0
VERTEX
  8
0
 10
2.53012003745
 20
141.566779059
 30
0.0
  0
VERTEX
  8
0
 10
3.30431368955
 20
142.197894284
 30
0.0
  0
VERTEX
  8
0
 10
4.07754264712
 20
142.830190772
 30
0.0
  0
VERTEX
  8
0
 10
4.84988793927
 20
143.463566238
 30
0.0
  0
VERTEX
  8
0
 10
5.62143245209
 20
144.097916798
 30
0.0
  0
VERTEX
  8
0
 10
6.39226096628
 20
144.733137189
 30
0.0
  0
VERTEX
  8
0
 10
7.16245991573
 20
145.369120766
 30
0.0
  0
VERTEX
  8
0
 10
7.93211726095
 20
146.005759625
 30
0.0
  0
VERTEX
  8
0
 10
8.70132237894
 20
146.642944733
 30
0.0
  0
VERTEX
  8
0
 10
9.47016595142
 20
147.280566066
 30
0.0
  0
VERTEX
  8
0
 10
10.2387396862
 20
147.91851264
 30
0.0
  0
VERTEX
  8
0
 10
11.0071362598
 20
148.556672566
 30
0.0
  0
VERTEX
  8
0
 10
11.7754490494
 20
149.194933339
 30
0.0
  0
VERTEX
  8
0
 10
12.5437719821
 20
149.833181865
 30
0.0
  0
VERTEX
  8
0
 10
13.3121994871
 20
150.471304487
 30
0.0
  0
VERTEX
  8
0
 10
14.0808261487
 20
151.109187192
 30
0.0
  0
VERTEX
  8
0
 10
14.8497465739
 20
151.746715738
 30
0.0
  0
VERTEX
  8
0
 10
15.6190551928
 20
152.383775718
 30
0.0
  0
VERTEX
  8
0
 10
16.3888459293
 20
153.020252543
 30
0.0
  0
VERTEX
  8
0
 10
17.1592125564
 20
153.656032045
 30
0.0
  0
VERTEX
  8
0
 10
17.9302481014
 20
154.291000256
 30
0.0
  0
VERTEX
  8
0
 10
18.7020445894
 20
154.925043471
 30
0.0
  0
VERTEX
  8
0
 10
19.4746929141
 20
155.558048406
 30
0.0
  0
VERTEX
  8
0
 10
20.2482827087
 20
156.189902358
 30
0.0
  0
VERTEX
  8
0
 10
21.0229022168
 20
156.82049336
 30
0.0
  0
VERTEX
  8
0
 10
21.7986381629
 20
157.449710339
 30
0.0
  0
VERTEX
  8
0
 10
22.5755756231
 20
158.077443274
 30
0.0
  0
VERTEX
  8
0
 10
23.3538002529
 20
158.703585236
 30
0.0
  0
VERTEX
  8
0
 10
24.1334068552
 20
159.328039392
 30
0.0
  0
VERTEX
  8
0
 10
24.9144735161
 20
159.950698504
 30
0.0
  0
VERTEX
  8
0
 10
25.6970734397
 20
160.571454745
 30
0.0
  0
VERTEX
  8
0
 10
26.4812776483
 20
161.190202091
 30
0.0
  0
VERTEX
  8
0
 10
27.2671548842
 20
161.806836454
 30
0.0
  0
VERTEX
  8
0
 10
28.0547715164
 20
162.42125581
 30
0.0
  0
VERTEX
  8
0
 10
28.844191455
 20
163.033360317
 30
0.0
  0
VERTEX
  8
0
 10
29.6354760705
 20
163.643052417
 30
0.0
  0
VERTEX
  8
0
 10
30.4286841205
 20
164.250236938
 30
0.0
  0
VERTEX
  8
0
 10
31.2238716818
 20
164.854821186
 30
0.0
  0
VERTEX
  8
0
 10
32.0210920893
 20
165.456715021
 30
0.0
  0
VERTEX
  8
0
 10
32.8203958812
 20
166.055830932
 30
0.0
  0
VERTEX
  8
0
 10
33.6218307492
 20
166.652084101
 30
0.0
  0
VERTEX
  8
0
 10
34.4254414967
 20
167.245392455
 30
0.0
  0
VERTEX
  8
0
 10
35.2312700014
 20
167.835676716
 30
0.0
  0
VERTEX
  8
0
 10
36.0393551842
 20
168.422860439
 30
0.0
  0
VERTEX
  8
0
 10
36.8497329848
 20
169.006870038
 30
0.0
  0
VERTEX
  8
0
 10
37.6624363413
 20
169.587634815
 30
0.0
  0
VERTEX
  8
0
 10
38.4774951767
 20
170.16508697
 30
0.0
  0
VERTEX
  8
0
 10
39.2949363905
 20
170.73916161
 30
0.0
  0
VERTEX
  8
0
 10
40.1147838544
 20
171.309796749
 30
0.0
  0
VERTEX
  8
0
 10
40.9370584148
 20
171.876933303
 30
0.0
  0
VERTEX
  8
0
 10
41.7617778983
 20
172.440515076
 30
0.0
  0
VERTEX
  8
0
 10
42.5889571227
 20
173.000488737
 30
0.0
  0
VERTEX
  8
0
 10
43.4186079125
 20
173.556803802
 30
0.0
  0
VERTEX
  8
0
 10
44.2507391173
 20
174.109412598
 30
0.0
  0
VERTEX
  8
0
 10
45.0853566354
 20
174.658270228
 30
0.0
  0
VERTEX
  8
0
 10
45.9224634399
 20
175.20333453
 30
0.0
  0
VERTEX
  8
0
 10
46.7620596081
 20
175.744566036
 30
0.0
  0
VERTEX
  8
0
 10
47.6041423543
 20
176.281927918
 30
0.0
  0
VERTEX
  8
0
 10
48.4487060645
 20
176.815385936
 30
0.0
  0
VERTEX
  8
0
 10
49.2957423335
 20
177.344908388
 30
0.0
  0
VERTEX
  8
0
 10
50.1452400043
 20
177.870466048
 30
0.0
  0
VERTEX
  8
0
 10
50.9971852077
 20
178.392032104
 30
0.0
  0
VERTEX
  8
0
 10
51.8515614045
 20
178.909582105
 30
0.0
  0
VERTEX
  8
0
 10
52.7083494271
 20
179.423093892
 30
0.0
  0
VERTEX
  8
0
 10
53.5675275218
 20
179.932547538
 30
0.0
  0
VERTEX
  8
0
 10
54.4290737433
 20
180.437926661
 30
0.0
  0
VERTEX
  8
0
 10
55.292990662
 20
180.939232482
 30
0.0
  0
VERTEX
  8
0
 10
56.15926396
 20
181.436459226
 30
0.0
  0
VERTEX
  8
0
 10
57.0278710045
 20
181.92959938
 30
0.0
  0
VERTEX
  8
0
 10
57.8987882417
 20
182.418647918
 30
0.0
  0
VERTEX
  8
0
 10
58.7719912525
 20
182.903602188
 30
0.0
  0
VERTEX
  8
0
 10
59.6474548062
 20
183.384461813
 30
0.0
  0
VERTEX
  8
0
 10
60.5251529139
 20
183.861228579
 30
0.0
  0
VERTEX
  8
0
 10
61.4050588799
 20
184.333906339
 30
0.0
  0
VERTEX
  8
0
 10
62.2871453524
 20
184.80250091
 30
0.0
  0
VERTEX
  8
0
 10
63.1713843727
 20
185.267019981
 30
0.0
  0
VERTEX
  8
0
 10
64.0577474234
 20
185.727473014
 30
0.0
  0
VERTEX
  8
0
 10
64.9462054748
 20
186.183871156
 30
0.0
  0
VERTEX
  8
0
 10
65.8367290309
 20
186.636227148
 30
0.0
  0
VERTEX
  8
0
 10
66.7292881736
 20
187.084555238
 30
0.0
  0
VERTEX
  8
0
 10
67.6238526057
 20
187.5288711
 30
0.0
  0
VERTEX
  8
0
 10
68.5203916931
 20
187.969191746
 30
0.0
  0
VERTEX
  8
0
 10
69.4188745053
 20
188.405535454
 30
0.0
  0
VERTEX
  8
0
 10
70.3192698546
 20
188.837921687
 30
0.0
  0
VERTEX
  8
0
 10
71.2215463348
 20
189.266371016
 30
0.0
  0
VERTEX
  8
0
 10
72.1256723579
 20
189.690905056
 30
0.0
  0
VERTEX
  8
0
 10
73.0316161898
 20
190.111546389
 30
0.0
  0
VERTEX
  8
0
 10
73.9393459849
 20
190.528318502
 30
0.0
  0
VERTEX
  8
0
 10
74.8488298197
 20
190.941245718
 30
0.0
  0
VERTEX
  8
0
 10
75.7600357244
 20
191.350353139
 30
0.0
  0
VERTEX
  8
0
 10
76.6729317138
 20
191.755666582
 30
0.0
  0
VERTEX
  8
0
 10
77.5874858172
 20
192.157212527
 30
0.0
  0
VERTEX
  8
0
 10
78.5036670808
 20
192.555018483
 30
0.0
  0
VERTEX
  8
0
 10
79.4214474659
 20
192.949113736
 30
0.0
  0
VERTEX
  8
0
 10
80.34079767
 20
193.339527431
 30
0.0
  0
VERTEX
  8
0
 10
81.2616884935
 20
193.726289124
 30
0.0
  0
VERTEX
  8
0
 10
82.1840909888
 20
194.109428793
 30
0.0
  0
VERTEX
  8
0
 10
83.107976476
 20
194.488976794
 30
0.0
  0
VERTEX
  8
0
 10
84.03331656
 20
194.864963817
 30
0.0
  0
VERTEX
  8
0
 10
84.9600831454
 20
195.237420844
 30
0.0
  0
VERTEX
  8
0
 10
85.888248451
 20
195.606379114
 30
0.0
  0
VERTEX
  8
0
 10
86.8177850237
 20
195.971870082
 30
0.0
  0
VERTEX
  8
0
 10
87.7486657515
 20
196.333925389
 30
0.0
  0
VERTEX
  8
0
 10
88.6808638758
 20
196.692576828
 30
0.0
  0
VERTEX
  8
0
 10
89.6143530029
 20
197.047856309
 30
0.0
  0
VERTEX
  8
0
 10
90.5491071153
 20
197.399795838
 30
0.0
  0
VERTEX
  8
0
 10
91.4851005816
 20
197.748427483
 30
0.0
  0
VERTEX
  8
0
 10
92.4223081665
 20
198.09378335
 30
0.0
  0
VERTEX
  8
0
 10
93.36070504
 20
198.435895562
 30
0.0
  0
VERTEX
  8
0
 10
94.3002667859
 20
198.77479623
 30
0.0
  0
VERTEX
  8
0
 10
95.2409694096
 20
199.110517441
 30
0.0
  0
VERTEX
  8
0
 10
96.1827893459
 20
199.443091228
 30
0.0
  0
VERTEX
  8
0
 10
97.1257034661
 20
199.772549559
 30
0.0
  0
VERTEX
  8
0
 10
98.0696890843
 20
200.098924318
 30
0.0
  0
VERTEX
  8
0
 10
99.0147239639
 20
200.422247287
 30
0.0
  0
VERTEX
  8
0
 10
99.9607863229
 20
200.742550132
 30
0.0
  0
VERTEX
  8
0
 10
100.90785484
 20
201.05986439
 30
0.0
  0
VERTEX
  8
0
 10
101.855908658
 20
201.374221454
 30
0.0
  0
VERTEX
  8
0
 10
102.804927392
 20
201.685652565
 30
0.0
  0
VERTEX
  8
0
 10
103.754891127
 20
201.994188796
 30
0.0
  0
VERTEX
  8
0
 10
104.705780432
 20
202.299861043
 30
0.0
  0
VERTEX
  8
0
 10
105.657576352
 20
202.602700016
 30
0.0
  0
VERTEX
  8
0
 10
106.610260423
 20
202.902736232
 30
0.0
  0
VERTEX
  8
0
 10
107.563814667
 20
203.2
 30
0.0
  0
SEQEND
  8
0
  0
LINE
  8
0
 62
0
 10
130.402954744
 20
203.2
 30
0.0
 11
107.563814667
 21
203.2
 31
0.0
  0
LINE
  8
0
 62
0
 10
130.402954744
 20
-1.3084644479e-12
 30
0.0
 11
130.402954744
 21
203.2
 31
0.0
  0
ENDBLK
  0
ENDSEC
  0
SECTION
  2
ENTITIES
  0
INSERT
  2
FACE014
  8
0
 62
0
 10
0.0
 20
0.0
 30
0.0
  0
ENDSEC
  0
EOF
