  0
SECTION
  2
HEADER
  9
$ACADVER
  1
AC1009
  9
$INSBASE
 10
0.0
 20
0.0
 30
0.0
  9
$EXTMIN
 10
0.0
 20
0.0
 30
0.0
  9
$EXTMAX
 10
0.0
 20
0.0
 30
0.0
  0
ENDSEC
  0
SECTION
  2
TABLES
  0
TABLE
  2
VPORT
 70
0
  0
ENDTAB
  0
TABLE
  2
LTYPE
 70
1
  0
LTYPE
  2
CONTINUOUS
 70
0
  3
Solid line
 72
65
 73
0
 40
0.0
  0
ENDTAB
  0
TABLE
  2
LAYER
 70
1
  0
LAYER
  2
0
 70
64
 62
7
  6
continuous
  0
ENDTAB
  0
TABLE
  2
STYLE
 70
1
  0
STYLE
  2
STANDARD
 70
0
 40
0
 41
1.0
 50
0.0
 71
0
 42
1
 3
ARIAL.TTF
 4

  0
ENDTAB
  0
TABLE
  2
VIEW
 70
0
  0
ENDTAB
  0
ENDSEC
  0
SECTION
  2
BLOCKS
  0
BLOCK
  8
0
  2
FACE015
 70
0
 10
0.0
 20
0.0
 30
0.0
  3
FACE015
  0
LINE
  8
0
 62
0
 10
127.0
 20
37.4325021826
 30
0.0
 11
-12.7
 21
-1.42108547152e-14
 31
0.0
  0
LINE
  8
0
 62
0
 10
-12.7
 20
0.0
 30
0.0
 11
-152.4
 21
0.0
 31
0.0
  0
LINE
  8
0
 62
0
 10
-152.4
 20
0.0
 30
0.0
 11
-152.4
 21
203.2
 31
0.0
  0
LINE
  8
0
 62
0
 10
-107.563814667
 20
203.2
 30
0.0
 11
-152.4
 21
203.2
 31
0.0
  0
POLYLINE
  8
0
 62
0
 70
0
 66
1
 10
0.0
 20
0.0
 30
0.0
  0
VERTEX
  8
0
 10
-107.563814667
 20
203.2
 30
0.0
  0
VERTEX
  8
0
 10
-106.351134923
 20
202.821430886
 30
0.0
  0
VERTEX
  8
0
 10
-105.149083981
 20
202.441295942
 30
0.0
  0
VERTEX
  8
0
 10
-103.957570473
 20
202.059605907
 30
0.0
  0
VERTEX
  8
0
 10
-102.776503033
 20
201.676371522
 30
0.0
  0
VERTEX
  8
0
 10
-101.605790295
 20
201.291603526
 30
0.0
  0
VERTEX
  8
0
 10
-100.445340893
 20
200.90531266
 30
0.0
  0
VERTEX
  8
0
 10
-99.2950634592
 20
200.517509664
 30
0.0
  0
VERTEX
  8
0
 10
-98.1548666284
 20
200.128205277
 30
0.0
  0
VERTEX
  8
0
 10
-97.0246590341
 20
199.73741024
 30
0.0
  0
VERTEX
  8
0
 10
-95.9043493098
 20
199.345135293
 30
0.0
  0
VERTEX
  8
0
 10
-94.7938460893
 20
198.951391175
 30
0.0
  0
VERTEX
  8
0
 10
-93.6930580062
 20
198.556188627
 30
0.0
  0
VERTEX
  8
0
 10
-92.6018936942
 20
198.159538389
 30
0.0
  0
VERTEX
  8
0
 10
-91.520261787
 20
197.761451201
 30
0.0
  0
VERTEX
  8
0
 10
-90.4480709182
 20
197.361937802
 30
0.0
  0
VERTEX
  8
0
 10
-89.3852297215
 20
196.961008933
 30
0.0
  0
VERTEX
  8
0
 10
-88.3316468306
 20
196.558675333
 30
0.0
  0
VERTEX
  8
0
 10
-87.2872308792
 20
196.154947744
 30
0.0
  0
VERTEX
  8
0
 10
-86.2518905008
 20
195.749836904
 30
0.0
  0
VERTEX
  8
0
 10
-85.2255343292
 20
195.343353554
 30
0.0
  0
VERTEX
  8
0
 10
-84.208070998
 20
194.935508433
 30
0.0
  0
VERTEX
  8
0
 10
-83.199409141
 20
194.526312283
 30
0.0
  0
VERTEX
  8
0
 10
-82.1994573917
 20
194.115775842
 30
0.0
  0
VERTEX
  8
0
 10
-81.2081243839
 20
193.703909851
 30
0.0
  0
VERTEX
  8
0
 10
-80.2253187512
 20
193.29072505
 30
0.0
  0
VERTEX
  8
0
 10
-79.2509491273
 20
192.876232179
 30
0.0
  0
VERTEX
  8
0
 10
-78.2849241458
 20
192.460441977
 30
0.0
  0
VERTEX
  8
0
 10
-77.3271524404
 20
192.043365185
 30
0.0
  0
VERTEX
  8
0
 10
-76.3775426449
 20
191.625012543
 30
0.0
  0
VERTEX
  8
0
 10
-75.4360033928
 20
191.205394791
 30
0.0
  0
VERTEX
  8
0
 10
-74.5024433178
 20
190.784522669
 30
0.0
  0
VERTEX
  8
0
 10
-73.5767710536
 20
190.362406917
 30
0.0
  0
VERTEX
  8
0
 10
-72.6588952338
 20
189.939058274
 30
0.0
  0
VERTEX
  8
0
 10
-71.7487244922
 20
189.514487482
 30
0.0
  0
VERTEX
  8
0
 10
-70.8461674624
 20
189.088705279
 30
0.0
  0
VERTEX
  8
0
 10
-69.951132778
 20
188.661722406
 30
0.0
  0
VERTEX
  8
0
 10
-69.0635290728
 20
188.233549604
 30
0.0
  0
VERTEX
  8
0
 10
-68.1832649803
 20
187.804197611
 30
0.0
  0
VERTEX
  8
0
 10
-67.3102491344
 20
187.373677168
 30
0.0
  0
VERTEX
  8
0
 10
-66.4443901685
 20
186.941999014
 30
0.0
  0
VERTEX
  8
0
 10
-65.5855967165
 20
186.509173891
 30
0.0
  0
VERTEX
  8
0
 10
-64.7337774119
 20
186.075212538
 30
0.0
  0
VERTEX
  8
0
 10
-63.8888408885
 20
185.640125695
 30
0.0
  0
VERTEX
  8
0
 10
-63.0506957799
 20
185.203924102
 30
0.0
  0
VERTEX
  8
0
 10
-62.2192507198
 20
184.766618499
 30
0.0
  0
VERTEX
  8
0
 10
-61.3944143418
 20
184.328219625
 30
0.0
  0
VERTEX
  8
0
 10
-60.5760952796
 20
183.888738222
 30
0.0
  0
VERTEX
  8
0
 10
-59.7642021669
 20
183.448185029
 30
0.0
  0
VERTEX
  8
0
 10
-58.9586436373
 20
183.006570785
 30
0.0
  0
VERTEX
  8
0
 10
-58.1593283245
 20
182.563906232
 30
0.0
  0
VERTEX
  8
0
 10
-57.3661648623
 20
182.120202109
 30
0.0
  0
VERTEX
  8
0
 10
-56.5790618842
 20
181.675469156
 30
0.0
  0
VERTEX
  8
0
 10
-55.7979280239
 20
181.229718113
 30
0.0
  0
VERTEX
  8
0
 10
-55.0226719151
 20
180.78295972
 30
0.0
  0
VERTEX
  8
0
 10
-54.2532021914
 20
180.335204717
 30
0.0
  0
VERTEX
  8
0
 10
-53.4894274866
 20
179.886463844
 30
0.0
  0
VERTEX
  8
0
 10
-52.7312564343
 20
179.436747841
 30
0.0
  0
VERTEX
  8
0
 10
-51.9785976681
 20
178.986067449
 30
0.0
  0
VERTEX
  8
0
 10
-51.2313598217
 20
178.534433406
 30
0.0
  0
VERTEX
  8
0
 10
-50.4894515289
 20
178.081856454
 30
0.0
  0
VERTEX
  8
0
 10
-49.7527814232
 20
177.628347331
 30
0.0
  0
VERTEX
  8
0
 10
-49.0212581383
 20
177.173916779
 30
0.0
  0
VERTEX
  8
0
 10
-48.294790308
 20
176.718575537
 30
0.0
  0
VERTEX
  8
0
 10
-47.5732865658
 20
176.262334345
 30
0.0
  0
VERTEX
  8
0
 10
-46.8566555454
 20
175.805203943
 30
0.0
  0
VERTEX
  8
0
 10
-46.1448058806
 20
175.347195072
 30
0.0
  0
VERTEX
  8
0
 10
-45.4376462049
 20
174.88831847
 30
0.0
  0
VERTEX
  8
0
 10
-44.7350851521
 20
174.428584879
 30
0.0
  0
VERTEX
  8
0
 10
-44.0370313557
 20
173.968005038
 30
0.0
  0
VERTEX
  8
0
 10
-43.3433934496
 20
173.506589687
 30
0.0
  0
VERTEX
  8
0
 10
-42.6540800672
 20
173.044349567
 30
0.0
  0
VERTEX
  8
0
 10
-41.9689998424
 20
172.581295416
 30
0.0
  0
VERTEX
  8
0
 10
-41.2880614088
 20
172.117437976
 30
0.0
  0
VERTEX
  8
0
 10
-40.6111734001
 20
171.652787986
 30
0.0
  0
VERTEX
  8
0
 10
-39.9382444498
 20
171.187356187
 30
0.0
  0
VERTEX
  8
0
 10
-39.2691831917
 20
170.721153317
 30
0.0
  0
VERTEX
  8
0
 10
-38.6038982595
 20
170.254190118
 30
0.0
  0
VERTEX
  8
0
 10
-37.9422982868
 20
169.786477329
 30
0.0
  0
VERTEX
  8
0
 10
-37.2842919073
 20
169.318025691
 30
0.0
  0
VERTEX
  8
0
 10
-36.6297877546
 20
168.848845942
 30
0.0
  0
VERTEX
  8
0
 10
-35.9786944625
 20
168.378948824
 30
0.0
  0
VERTEX
  8
0
 10
-35.3309206646
 20
167.908345077
 30
0.0
  0
VERTEX
  8
0
 10
-34.6863749945
 20
167.437045439
 30
0.0
  0
VERTEX
  8
0
 10
-34.0449660859
 20
166.965060652
 30
0.0
  0
VERTEX
  8
0
 10
-33.4066025726
 20
166.492401456
 30
0.0
  0
VERTEX
  8
0
 10
-32.7711930881
 20
166.019078589
 30
0.0
  0
VERTEX
  8
0
 10
-32.1386462662
 20
165.545102793
 30
0.0
  0
VERTEX
  8
0
 10
-31.5088707404
 20
165.070484808
 30
0.0
  0
VERTEX
  8
0
 10
-30.8817751445
 20
164.595235373
 30
0.0
  0
VERTEX
  8
0
 10
-30.2572681122
 20
164.119365228
 30
0.0
  0
VERTEX
  8
0
 10
-29.635258277
 20
163.642885113
 30
0.0
  0
VERTEX
  8
0
 10
-29.0156542728
 20
163.165805769
 30
0.0
  0
VERTEX
  8
0
 10
-28.398364733
 20
162.688137936
 30
0.0
  0
VERTEX
  8
0
 10
-27.7832982915
 20
162.209892352
 30
0.0
  0
VERTEX
  8
0
 10
-27.1703635819
 20
161.73107976
 30
0.0
  0
VERTEX
  8
0
 10
-26.5594692378
 20
161.251710897
 30
0.0
  0
VERTEX
  8
0
 10
-25.9505238929
 20
160.771796505
 30
0.0
  0
VERTEX
  8
0
 10
-25.3434361809
 20
160.291347324
 30
0.0
  0
VERTEX
  8
0
 10
-24.7381147354
 20
159.810374093
 30
0.0
  0
VERTEX
  8
0
 10
-24.1344681902
 20
159.328887552
 30
0.0
  0
VERTEX
  8
0
 10
-23.5324051788
 20
158.846898442
 30
0.0
  0
VERTEX
  8
0
 10
-22.931834335
 20
158.364417503
 30
0.0
  0
VERTEX
  8
0
 10
-22.3326642925
 20
157.881455474
 30
0.0
  0
VERTEX
  8
0
 10
-21.7348036848
 20
157.398023095
 30
0.0
  0
VERTEX
  8
0
 10
-21.1381611456
 20
156.914131107
 30
0.0
  0
VERTEX
  8
0
 10
-20.5426453087
 20
156.42979025
 30
0.0
  0
VERTEX
  8
0
 10
-19.9481648077
 20
155.945011263
 30
0.0
  0
VERTEX
  8
0
 10
-19.3546282763
 20
155.459804886
 30
0.0
  0
VERTEX
  8
0
 10
-18.7619443481
 20
154.97418186
 30
0.0
  0
VERTEX
  8
0
 10
-18.1700216567
 20
154.488152925
 30
0.0
  0
VERTEX
  8
0
 10
-17.578768836
 20
154.00172882
 30
0.0
  0
VERTEX
  8
0
 10
-16.9880945195
 20
153.514920286
 30
0.0
  0
VERTEX
  8
0
 10
-16.3979073409
 20
153.027738062
 30
0.0
  0
VERTEX
  8
0
 10
-15.8081159338
 20
152.540192889
 30
0.0
  0
VERTEX
  8
0
 10
-15.218628932
 20
152.052295507
 30
0.0
  0
VERTEX
  8
0
 10
-14.6293549691
 20
151.564056655
 30
0.0
  0
VERTEX
  8
0
 10
-14.0402026788
 20
151.075487074
 30
0.0
  0
VERTEX
  8
0
 10
-13.4510806947
 20
150.586597504
 30
0.0
  0
VERTEX
  8
0
 10
-12.8618976505
 20
150.097398684
 30
0.0
  0
VERTEX
  8
0
 10
-12.2725621799
 20
149.607901355
 30
0.0
  0
VERTEX
  8
0
 10
-11.6829829165
 20
149.118116256
 30
0.0
  0
VERTEX
  8
0
 10
-11.0930684941
 20
148.628054128
 30
0.0
  0
VERTEX
  8
0
 10
-10.5027275463
 20
148.137725711
 30
0.0
  0
VERTEX
  8
0
 10
-9.91186870664
 20
147.647141745
 30
0.0
  0
VERTEX
  8
0
 10
-9.32040060896
 20
147.156312969
 30
0.0
  0
VERTEX
  8
0
 10
-8.72823188686
 20
146.665250124
 30
0.0
  0
VERTEX
  8
0
 10
-8.13527117401
 20
146.173963949
 30
0.0
  0
VERTEX
  8
0
 10
-7.54142710409
 20
145.682465186
 30
0.0
  0
VERTEX
  8
0
 10
-6.94660831076
 20
145.190764573
 30
0.0
  0
VERTEX
  8
0
 10
-6.35072342768
 20
144.69887285
 30
0.0
  0
VERTEX
  8
0
 10
-5.75368108853
 20
144.206800759
 30
0.0
  0
VERTEX
  8
0
 10
-5.15538992698
 20
143.714559038
 30
0.0
  0
VERTEX
  8
0
 10
-4.55575857669
 20
143.222158428
 30
0.0
  0
VERTEX
  8
0
 10
-3.95469567134
 20
142.729609669
 30
0.0
  0
VERTEX
  8
0
 10
-3.35210984458
 20
142.236923501
 30
0.0
  0
VERTEX
  8
0
 10
-2.74790973008
 20
141.744110663
 30
0.0
  0
VERTEX
  8
0
 10
-2.14200396153
 20
141.251181896
 30
0.0
  0
VERTEX
  8
0
 10
-1.53430117257
 20
140.758147941
 30
0.0
  0
VERTEX
  8
0
 10
-0.924709996891
 20
140.265019535
 30
0.0
  0
VERTEX
  8
0
 10
-0.313139068148
 20
139.771807421
 30
0.0
  0
VERTEX
  8
0
 10
0.300502979988
 20
139.278522338
 30
0.0
  0
VERTEX
  8
0
 10
0.916307513849
 20
138.785175025
 30
0.0
  0
VERTEX
  8
0
 10
1.53436589977
 20
138.291776223
 30
0.0
  0
VERTEX
  8
0
 10
2.15476950407
 20
137.798336672
 30
0.0
  0
VERTEX
  8
0
 10
2.7776096931
 20
137.304867112
 30
0.0
  0
VERTEX
  8
0
 10
3.40297783318
 20
136.811378283
 30
0.0
  0
VERTEX
  8
0
 10
4.03096529064
 20
136.317880925
 30
0.0
  0
VERTEX
  8
0
 10
4.66166343182
 20
135.824385778
 30
0.0
  0
VERTEX
  8
0
 10
5.29516362305
 20
135.330903581
 30
0.0
  0
VERTEX
  8
0
 10
5.93155723066
 20
134.837445076
 30
0.0
  0
VERTEX
  8
0
 10
6.57093562098
 20
134.344021001
 30
0.0
  0
VERTEX
  8
0
 10
7.21339016034
 20
133.850642097
 30
0.0
  0
VERTEX
  8
0
 10
7.85901221508
 20
133.357319105
 30
0.0
  0
VERTEX
  8
0
 10
8.50789315153
 20
132.864062763
 30
0.0
  0
VERTEX
  8
0
 10
9.16012433602
 20
132.370883812
 30
0.0
  0
VERTEX
  8
0
 10
9.81579713488
 20
131.877792992
 30
0.0
  0
VERTEX
  8
0
 10
10.4750029144
 20
131.384801043
 30
0.0
  0
VERTEX
  8
0
 10
11.137833041
 20
130.891918705
 30
0.0
  0
VERTEX
  8
0
 10
11.804378881
 20
130.399156719
 30
0.0
  0
VERTEX
  8
0
 10
12.4747318007
 20
129.906525823
 30
0.0
  0
VERTEX
  8
0
 10
13.1489831664
 20
129.414036758
 30
0.0
  0
VERTEX
  8
0
 10
13.8272243444
 20
128.921700264
 30
0.0
  0
VERTEX
  8
0
 10
14.5095467012
 20
128.429527081
 30
0.0
  0
VERTEX
  8
0
 10
15.196041603
 20
127.93752795
 30
0.0
  0
VERTEX
  8
0
 10
15.8868004161
 20
127.445713609
 30
0.0
  0
VERTEX
  8
0
 10
16.581914507
 20
126.954094799
 30
0.0
  0
VERTEX
  8
0
 10
17.2814752418
 20
126.462682261
 30
0.0
  0
VERTEX
  8
0
 10
17.9855739871
 20
125.971486733
 30
0.0
  0
VERTEX
  8
0
 10
18.694302109
 20
125.480518957
 30
0.0
  0
VERTEX
  8
0
 10
19.4077509739
 20
124.989789672
 30
0.0
  0
VERTEX
  8
0
 10
20.1260119482
 20
124.499309618
 30
0.0
  0
VERTEX
  8
0
 10
20.8491763981
 20
124.009089534
 30
0.0
  0
VERTEX
  8
0
 10
21.5773356901
 20
123.519140163
 30
0.0
  0
VERTEX
  8
0
 10
22.3105811904
 20
123.029472242
 30
0.0
  0
VERTEX
  8
0
 10
23.0490042654
 20
122.540096512
 30
0.0
  0
VERTEX
  8
0
 10
23.7926962814
 20
122.051023714
 30
0.0
  0
VERTEX
  8
0
 10
24.5417486048
 20
121.562264586
 30
0.0
  0
VERTEX
  8
0
 10
25.2962526018
 20
121.07382987
 30
0.0
  0
VERTEX
  8
0
 10
26.0562996388
 20
120.585730305
 30
0.0
  0
VERTEX
  8
0
 10
26.8219810822
 20
120.097976631
 30
0.0
  0
VERTEX
  8
0
 10
27.5933882983
 20
119.610579589
 30
0.0
  0
VERTEX
  8
0
 10
28.3706126533
 20
119.123549917
 30
0.0
  0
VERTEX
  8
0
 10
29.1537455137
 20
118.636898357
 30
0.0
  0
VERTEX
  8
0
 10
29.9428782457
 20
118.150635648
 30
0.0
  0
VERTEX
  8
0
 10
30.7381022158
 20
117.66477253
 30
0.0
  0
VERTEX
  8
0
 10
31.5395087902
 20
117.179319744
 30
0.0
  0
VERTEX
  8
0
 10
32.3471893352
 20
116.694288029
 30
0.0
  0
VERTEX
  8
0
 10
33.1612352173
 20
116.209688125
 30
0.0
  0
VERTEX
  8
0
 10
33.9817378026
 20
115.725530772
 30
0.0
  0
VERTEX
  8
0
 10
34.8087884576
 20
115.24182671
 30
0.0
  0
VERTEX
  8
0
 10
35.6424785486
 20
114.75858668
 30
0.0
  0
VERTEX
  8
0
 10
36.482899442
 20
114.275821421
 30
0.0
  0
VERTEX
  8
0
 10
37.330142504
 20
113.793541674
 30
0.0
  0
VERTEX
  8
0
 10
38.1842991009
 20
113.311758177
 30
0.0
  0
VERTEX
  8
0
 10
39.0454605992
 20
112.830481672
 30
0.0
  0
VERTEX
  8
0
 10
39.9137183652
 20
112.349722899
 30
0.0
  0
VERTEX
  8
0
 10
40.7891637651
 20
111.869492597
 30
0.0
  0
VERTEX
  8
0
 10
41.6718881653
 20
111.389801506
 30
0.0
  0
VERTEX
  8
0
 10
42.5619829322
 20
110.910660366
 30
0.0
  0
VERTEX
  8
0
 10
43.4595394321
 20
110.432079918
 30
0.0
  0
VERTEX
  8
0
 10
44.3646490313
 20
109.954070901
 30
0.0
  0
VERTEX
  8
0
 10
45.2774030961
 20
109.476644056
 30
0.0
  0
VERTEX
  8
0
 10
46.1978929929
 20
108.999810121
 30
0.0
  0
VERTEX
  8
0
 10
47.126210088
 20
108.523579839
 30
0.0
  0
VERTEX
  8
0
 10
48.0624457477
 20
108.047963948
 30
0.0
  0
VERTEX
  8
0
 10
49.0066913384
 20
107.572973188
 30
0.0
  0
VERTEX
  8
0
 10
49.9590382264
 20
107.098618299
 30
0.0
  0
VERTEX
  8
0
 10
50.919577778
 20
106.624910022
 30
0.0
  0
VERTEX
  8
0
 10
51.8884013596
 20
106.151859097
 30
0.0
  0
VERTEX
  8
0
 10
52.8656003375
 20
105.679476263
 30
0.0
  0
VERTEX
  8
0
 10
53.851266078
 20
105.20777226
 30
0.0
  0
VERTEX
  8
0
 10
54.8454899475
 20
104.736757829
 30
0.0
  0
VERTEX
  8
0
 10
55.8483633123
 20
104.266443709
 30
0.0
  0
VERTEX
  8
0
 10
56.8599775387
 20
103.796840641
 30
0.0
  0
VERTEX
  8
0
 10
57.8804239931
 20
103.327959365
 30
0.0
  0
VERTEX
  8
0
 10
58.9097940417
 20
102.859810619
 30
0.0
  0
VERTEX
  8
0
 10
59.948179051
 20
102.392405146
 30
0.0
  0
VERTEX
  8
0
 10
60.9956703873
 20
101.925753684
 30
0.0
  0
VERTEX
  8
0
 10
62.0523594168
 20
101.459866973
 30
0.0
  0
VERTEX
  8
0
 10
63.1183375059
 20
100.994755754
 30
0.0
  0
VERTEX
  8
0
 10
64.193696021
 20
100.530430766
 30
0.0
  0
VERTEX
  8
0
 10
65.2785263283
 20
100.066902751
 30
0.0
  0
VERTEX
  8
0
 10
66.3729197943
 20
99.6041824462
 30
0.0
  0
VERTEX
  8
0
 10
67.4769677852
 20
99.1422805934
 30
0.0
  0
VERTEX
  8
0
 10
68.5907616674
 20
98.6812079322
 30
0.0
  0
VERTEX
  8
0
 10
69.7143928072
 20
98.2209752026
 30
0.0
  0
VERTEX
  8
0
 10
70.847952571
 20
97.7615931446
 30
0.0
  0
VERTEX
  8
0
 10
71.991532325
 20
97.3030724983
 30
0.0
  0
VERTEX
  8
0
 10
73.1452234356
 20
96.8454240035
 30
0.0
  0
VERTEX
  8
0
 10
74.3091172692
 20
96.3886584004
 30
0.0
  0
VERTEX
  8
0
 10
75.483305192
 20
95.9327864289
 30
0.0
  0
VERTEX
  8
0
 10
76.6678785704
 20
95.4778188291
 30
0.0
  0
VERTEX
  8
0
 10
77.8629287708
 20
95.0237663409
 30
0.0
  0
VERTEX
  8
0
 10
79.0685471594
 20
94.5706397045
 30
0.0
  0
VERTEX
  8
0
 10
80.2848251026
 20
94.1184496596
 30
0.0
  0
VERTEX
  8
0
 10
81.5118539668
 20
93.6672069465
 30
0.0
  0
VERTEX
  8
0
 10
82.7497251182
 20
93.2169223051
 30
0.0
  0
VERTEX
  8
0
 10
83.9985299232
 20
92.7676064753
 30
0.0
  0
VERTEX
  8
0
 10
85.2583597481
 20
92.3192701973
 30
0.0
  0
VERTEX
  8
0
 10
86.5293059593
 20
91.871924211
 30
0.0
  0
VERTEX
  8
0
 10
87.811459923
 20
91.4255792564
 30
0.0
  0
VERTEX
  8
0
 10
89.1049130057
 20
90.9802460736
 30
0.0
  0
VERTEX
  8
0
 10
90.4097565737
 20
90.5359354025
 30
0.0
  0
VERTEX
  8
0
 10
91.7260819932
 20
90.0926579832
 30
0.0
  0
VERTEX
  8
0
 10
93.0539806306
 20
89.6504245557
 30
0.0
  0
VERTEX
  8
0
 10
94.3935438523
 20
89.2092458599
 30
0.0
  0
VERTEX
  8
0
 10
95.7448630246
 20
88.7691326359
 30
0.0
  0
VERTEX
  8
0
 10
97.1080295138
 20
88.3300956237
 30
0.0
  0
VERTEX
  8
0
 10
98.4831346862
 20
87.8921455633
 30
0.0
  0
VERTEX
  8
0
 10
99.8702699082
 20
87.4552931947
 30
0.0
  0
VERTEX
  8
0
 10
101.269526546
 20
87.0195492579
 30
0.0
  0
VERTEX
  8
0
 10
102.680995966
 20
86.584924493
 30
0.0
  0
VERTEX
  8
0
 10
104.104769535
 20
86.1514296399
 30
0.0
  0
VERTEX
  8
0
 10
105.540938619
 20
85.7190754386
 30
0.0
  0
VERTEX
  8
0
 10
106.989594583
 20
85.2878726292
 30
0.0
  0
VERTEX
  8
0
 10
108.450828796
 20
84.8578319517
 30
0.0
  0
VERTEX
  8
0
 10
109.924732622
 20
84.4289641461
 30
0.0
  0
VERTEX
  8
0
 10
111.411397429
 20
84.0012799523
 30
0.0
  0
VERTEX
  8
0
 10
112.910914582
 20
83.5747901104
 30
0.0
  0
VERTEX
  8
0
 10
114.423375448
 20
83.1495053604
 30
0.0
  0
VERTEX
  8
0
 10
115.948871393
 20
82.7254364423
 30
0.0
  0
VERTEX
  8
0
 10
117.487493784
 20
82.3025940962
 30
0.0
  0
VERTEX
  8
0
 10
119.039333987
 20
81.8809890619
 30
0.0
  0
VERTEX
  8
0
 10
120.604483367
 20
81.4606320796
 30
0.0
  0
VERTEX
  8
0
 10
122.183033293
 20
81.0415338893
 30
0.0
  0
VERTEX
  8
0
 10
123.775075129
 20
80.6237052309
 30
0.0
  0
VERTEX
  8
0
 10
125.380700243
 20
80.2071568445
 30
0.0
  0
VERTEX
  8
0
 10
127.0
 20
79.79189947
 30
0.0
  0
SEQEND
  8
0
  0
LINE
  8
0
 62
0
 10
127.0
 20
37.4325021826
 30
0.0
 11
127.0
 21
79.79189947
 31
0.0
  0
ENDBLK
  0
ENDSEC
  0
SECTION
  2
ENTITIES
  0
INSERT
  2
FACE015
  8
0
 62
0
 10
0.0
 20
0.0
 30
0.0
  0
ENDSEC
  0
EOF
